Paraguay Beaumont

Masonic Nadine

Ott Ben

O'Shea Blackman
Waterhouse Toshiba

Jewell Syracuse

Bergman Ekstrom

Ritz Buchanan

Christoph Byrd

Fulbright Saviour

Kowalski Urdu

Northumberland Durkin

Payne Freddie
Lenin Stygian
